                                                                             I                                         
                                                                             ↓                                         
           ┌────────────────────┐     ┌────────────────────┐     ┌────────────────────┐     ┌────────────────────┐     
           │                    │     │                    │     │(const 2)           │     │                    │     
           │                    │     │                    │     │(up)                │     │                    │     
           │                    │     │                    │     │(send down (mul))   │     │                    │     
           │                    │     │                    │     │                    │     │                    │     
           │                    │     │                    │     │                    │     │                    │     
           │                    │  →  │                    │  →  │                    │  →  │                    │     
           │                    │     │                    │     │                    │     │                    │     
           │                    │  ←  │                    │  ←  │                    │  ←  │                    │     
           │                    │     │                    │     │                    │     │                    │     
           │                    │     │                    │     │                    │     │                    │     
           │                    │     │                    │     │                    │     │                    │     
           │                    │     │                    │     │                    │     │                    │     
           └────────────────────┘     └────────────────────┘     └────────────────────┘     └────────────────────┘     
                     ↑ ↓                        ↑ ↓                        ↑ ↓                        ↑ ↓              
           ┌────────────────────┐     ┌────────────────────┐     ┌────────────────────┐     ┌────────────────────┐     
           │                    │     │                    │     │(send down (up))    │     │                    │     
           │                    │     │                    │     │                    │     │                    │     
           │                    │     │                    │     │                    │     │                    │     
           │                    │     │                    │     │                    │     │                    │     
           │                    │     │                    │     │                    │     │                    │     
           │                    │  →  │                    │  →  │                    │  →  │                    │     
           │                    │     │                    │     │                    │     │                    │     
           │                    │  ←  │                    │  ←  │                    │  ←  │                    │     
           │                    │     │                    │     │                    │     │                    │     
           │                    │     │                    │     │                    │     │                    │     
           │                    │     │                    │     │                    │     │                    │     
           │                    │     │                    │     │                    │     │                    │     
           └────────────────────┘     └────────────────────┘     └────────────────────┘     └────────────────────┘     
                     ↑ ↓                        ↑ ↓                        ↑ ↓                        ↑ ↓              
           ┌────────────────────┐     ┌────────────────────┐     ┌────────────────────┐     ┌────────────────────┐     
           │                    │     │(send down (right)) │     │(send left (up))    │     │                    │     
           │                    │     │                    │     │                    │     │                    │     
           │                    │     │                    │     │                    │     │                    │     
           │                    │     │                    │     │                    │     │                    │     
           │                    │     │                    │     │                    │     │                    │     
           │                    │  →  │                    │  →  │                    │  →  │                    │     
           │                    │     │                    │     │                    │     │                    │     
           │                    │  ←  │                    │  ←  │                    │  ←  │                    │     
           │                    │     │                    │     │                    │     │                    │     
           │                    │     │                    │     │                    │     │                    │     
           │                    │     │                    │     │                    │     │                    │     
           │                    │     │                    │     │                    │     │                    │     
           └────────────────────┘     └────────────────────┘     └────────────────────┘     └────────────────────┘     
                                                  ↓                                                                    
                                                  O                                                                    


Signal Amplifier:
Read a value from I. Double it. Send that to O.
